-1 0.353226558765136
-0.8 0.149573098920925
-0.6 -0.456032003244791
-0.4 -0.843616324441993
-0.2 -0.3998302278786
0 0.540301276191859
0.2 0.960786467063959
0.4 0.460414766113629
0.6 -0.290337914666499
0.8 -0.522013965482527
1 -0.240456332319787
