1 0.999999989064903
1.125 0.941742690235098
1.25 0.906402468407809
1.375 0.888913561223765
1.5 0.886226918049109
1.625 0.896574273038643
1.75 0.919062520102744
1.875 0.953445806176854
2 0.999999989064903
2.125 1.05946052651448
2.25 1.13300308550976
2.375 1.22225614668268
2.5 1.32934037707366
2.625 1.45693319368779
2.75 1.6083594101798
2.875 1.7877108865816
3 1.99999997812981
3.125 2.25135361884328
3.25 2.54925694239696
3.375 2.90285834837136
3.5 3.32335094268416
3.625 3.82444963343046
3.75 4.42298837799446
3.875 5.1396687989221
4 5.99999993438942
4.125 7.03548005888525
4.25 8.28508506279013
4.375 9.79714692575333
4.5 11.6317282993946
4.625 13.8636299211854
4.75 16.5862064174792
4.875 19.9162165958231
5 23.9999997375577
5.125 29.0213552429017
5.25 35.211611516858
5.375 42.8625178001708
5.5 52.3427773472755
5.625 64.1192883854826
5.75 78.7844804830263
5.875 97.0915559046378
6 119.999998687788
6.125 148.734445619871
6.25 184.860960463505
6.375 230.386033175918
6.5 287.885275410015
6.625 360.67099716834
6.75 453.010762777401
6.875 570.412890939747
7 719.99999212673
7.125 910.99847942171
7.25 1155.3810028969
7.375 1468.71096149648
7.5 1871.2542901651
7.625 2389.44535624025
7.75 3057.82264874746
7.875 3921.58862521076
8 5039.99994488711
